<svg xmlns="http://www.w3.org/2000/svg" width="19.72" height="19.72" viewBox="0 0 19.72 19.72">
  <path id="insta" d="M6,19.72a6.007,6.007,0,0,1-6-6V7.231H4.559a5.857,5.857,0,0,0-.615,2.63,5.916,5.916,0,1,0,11.218-2.63H19.72V13.72a6.007,6.007,0,0,1-6,6ZM5.259,9.86a4.6,4.6,0,1,1,4.6,4.6A4.6,4.6,0,0,1,5.259,9.86Zm4.6-5.917A5.926,5.926,0,0,0,5.45,5.916H0V4A4.02,4.02,0,0,1,1.972.552V3.944h.657V.241A4.019,4.019,0,0,1,3.287.063V3.944h.657V0H4.6V3.944h.657V0H15.72a4,4,0,0,1,4,4V5.915H14.27A5.923,5.923,0,0,0,9.86,3.944Zm4.6-1.629V3.6a1,1,0,0,0,1,1h1.287a1,1,0,0,0,1-1V2.315a1,1,0,0,0-1-1H15.461A1,1,0,0,0,14.461,2.315Z" fill="#fff" opacity="0.4"/>
</svg>
