<svg xmlns="http://www.w3.org/2000/svg" width="11.561" height="21.707" viewBox="0 0 11.561 21.707">
  <path id="Path" d="M-10.5,0,0,10.5-10.5,21" transform="translate(10.854 0.354)" fill="none" stroke="#fff" stroke-miterlimit="10" stroke-width="1"/>
</svg>
