<?xml version="1.0" encoding="UTF-8"?>
<svg width="20px" height="14px" viewBox="0 0 20 14" version="1.1" xmlns="http://www.w3.org/2000/svg" xmlns:xlink="http://www.w3.org/1999/xlink">
    <!-- Generator: Sketch 52.2 (67145) - http://www.bohemiancoding.com/sketch -->
    <title>Mail</title>
    <desc>Created with Sketch.</desc>
    <g id="Page-1" stroke="none" stroke-width="1" fill="none" fill-rule="evenodd">
        <g id="business-copy" transform="translate(-130.000000, -1225.000000)">
            <g id="footer" transform="translate(0.000000, 1035.000000)">
                <g id="Mail" transform="translate(130.500000, 190.000000)">
                    <path d="M18.2700389,13.7689611 L0.835372222,13.7689611 C0.495094444,13.7689611 0.219372222,13.4932389 0.219372222,13.1529611 L0.219372222,0.968294444 C0.219372222,0.628016667 0.495094444,0.352294444 0.835372222,0.352294444 L18.2700389,0.352294444 C18.6103167,0.352294444 18.8860389,0.628016667 18.8860389,0.968294444 L18.8860389,13.1529611 C18.8860389,13.4932389 18.6103167,13.7689611 18.2700389,13.7689611 Z" id="Stroke-177" fill="#C10230"></path>
                    <path d="M18.7655222,0.605227778 L12.1971889,7.30928333 C10.7380778,8.74428333 8.36741111,8.74428333 6.9083,7.30928333 L0.339966667,0.605227778" id="Stroke-178" stroke="#F3F4F5" stroke-linejoin="round"></path>
                    <path d="M13.1653278,6.31380556 L18.5973278,13.6731389" id="Stroke-179" stroke="#F3F4F5" stroke-linejoin="round"></path>
                    <path d="M6.03963889,6.38730556 L0.339305556,13.7688056" id="Stroke-180" stroke="#F3F4F5" stroke-linejoin="round"></path>
                </g>
            </g>
        </g>
    </g>
</svg>