<?xml version="1.0" encoding="UTF-8"?>
<svg width="13px" height="15px" viewBox="0 0 13 15" version="1.1" xmlns="http://www.w3.org/2000/svg" xmlns:xlink="http://www.w3.org/1999/xlink">
    <!-- Generator: Sketch 52.2 (67145) - http://www.bohemiancoding.com/sketch -->
    <title>Phone</title>
    <desc>Created with Sketch.</desc>
    <g id="Page-1" stroke="none" stroke-width="1" fill="none" fill-rule="evenodd">
        <g id="business-copy" transform="translate(-133.000000, -1274.000000)">
            <g id="footer" transform="translate(0.000000, 1035.000000)">
                <g id="Phone" transform="translate(133.500000, 239.000000)">
                    <path d="M7.01739796,10.4137347 C5.15188776,9.3692449 3.73056122,7.60322449 3.11617347,5.48455102" id="Stroke-312" stroke="#C10230" stroke-linecap="round" stroke-linejoin="round"></path>
                    <path d="M7.01739796,10.3376633 C7.43770408,10.2997041 8.23515306,9.5089898 8.65545918,9.47103061 C9.06841837,9.43368367 9.47923469,9.55735714 9.80556122,9.81786735 C10.2772959,10.194398 10.9082143,10.6982755 10.9134184,10.701949 C10.9167857,10.7047041 11.237602,10.9609286 11.5853571,11.2385816 C12.0622959,11.6190918 12.1421939,12.3231735 11.7629082,12.804398 L10.4784184,14.5425612 C10.3841327,14.6699082 10.2310714,14.7418469 10.074949,14.7271531 C4.50137755,14.2049082 0.0635204082,9.42664286 0.0635204082,3.62715306 C0.0635204082,2.58266327 0.205561224,1.57184694 0.470969388,0.613377551 C0.498214286,0.514806122 0.578112245,0.439806122 0.676683673,0.417459184 L3.11617347,0.058377551 C3.70943878,-0.0668265306 4.28923469,0.325316327 4.4052551,0.930826531 C4.49005102,1.37286735 4.56841837,1.78031633 4.56903061,1.78460204 C4.5702551,1.79072449 4.72423469,2.59245918 4.83903061,3.19123469 C4.91862245,3.60572449 4.83994898,4.03460204 4.61984694,4.39215306 C4.39545918,4.75643878 3.34178571,5.12041837 3.11739796,5.48439796" id="Stroke-313" fill="#C10230"></path>
                </g>
            </g>
        </g>
    </g>
</svg>