<svg xmlns="http://www.w3.org/2000/svg" width="13.561" height="25.707" viewBox="0 0 13.561 25.707">
  <path id="Path" d="M-12.5,0,0,12.5-12.5,25" transform="translate(12.854 0.354)" fill="none" stroke="#fff" stroke-miterlimit="10" stroke-width="1"/>
</svg>
