<svg xmlns="http://www.w3.org/2000/svg" xmlns:xlink="http://www.w3.org/1999/xlink" width="301.597" height="162.735" viewBox="0 0 301.597 162.735">
  <defs>
    <clipPath id="clip-path">
      <path id="Clip_4" data-name="Clip 4" d="M0,0H99.916V99.916H0Z" transform="translate(0 1.721)" fill="none"/>
    </clipPath>
    <clipPath id="clip-path-2">
      <path id="Clip_4-2" data-name="Clip 4" d="M0,0H119.13V119.13H0Z" transform="translate(0 2.052)" fill="none"/>
    </clipPath>
    <clipPath id="clip-path-3">
      <path id="Clip_4-3" data-name="Clip 4" d="M0,0H51.879V51.879H0Z" transform="translate(0 0.893)" fill="none"/>
    </clipPath>
    <clipPath id="clip-path-4">
      <path id="Clip_4-4" data-name="Clip 4" d="M0,0H32.665V32.665H0Z" transform="translate(0 0.563)" fill="none"/>
    </clipPath>
  </defs>
  <g id="Group_4" data-name="Group 4" transform="translate(-965.527 -411.477)">
    <g id="sector_icon" data-name="sector icon" transform="translate(1075 468)" opacity="0.6">
      <path id="Fill_1" data-name="Fill 1" d="M49.478,98.734a8.641,8.641,0,0,1-6.554-14.216,8.495,8.495,0,0,1,5.137-2.854v-9.57a1.262,1.262,0,0,1,1.305-1.305A1.726,1.726,0,0,1,50.894,72.2v9.462a8.644,8.644,0,0,1,7.173,8.481,8.54,8.54,0,0,1-8.589,8.59Zm.078-14.355q-.094,0-.189,0a5.871,5.871,0,1,0,5.872,5.871,5.948,5.948,0,0,0-1.65-4.136A5.543,5.543,0,0,0,49.556,84.379Zm28.735,2.394a8.554,8.554,0,0,1-6.959-13.593L64.591,66.44a1.1,1.1,0,0,1-.406-.814,1.364,1.364,0,0,1,.406-1.034,1.118,1.118,0,0,1,.883-.408,1.379,1.379,0,0,1,.965.408l6.85,6.741a8.119,8.119,0,0,1,5-1.631,8.538,8.538,0,0,1,6.089,2.5,8.275,8.275,0,0,1,2.53,5.928,8.587,8.587,0,0,1-8.618,8.644Zm0-14.463a5.927,5.927,0,0,0,0,11.854,5.927,5.927,0,0,0,0-11.854ZM20.557,86.773a8.55,8.55,0,0,1-6.094-2.5,8.273,8.273,0,0,1-2.528-5.925A8.583,8.583,0,0,1,20.557,69.7a8.114,8.114,0,0,1,5,1.631l6.739-6.741a1.123,1.123,0,0,1,.885-.408,1.386,1.386,0,0,1,.968.408,1.164,1.164,0,0,1,.419.883,1.47,1.47,0,0,1-.315.965l-6.738,6.741a8.555,8.555,0,0,1-6.956,13.593Zm0-14.463a5.9,5.9,0,0,0-4.135,1.74,5.956,5.956,0,0,0,0,8.375,5.9,5.9,0,0,0,4.135,1.74,5.927,5.927,0,0,0,0-11.854Zm28.81-8.263a14.618,14.618,0,1,1,10.4-4.281A14.595,14.595,0,0,1,49.367,64.048Zm0-26.75A12.07,12.07,0,1,0,61.436,49.37,12.083,12.083,0,0,0,49.367,37.3ZM8.591,57.959A8.6,8.6,0,0,1,0,49.37a8.478,8.478,0,0,1,2.367-5.9,7.912,7.912,0,0,1,5.745-2.484c.123,0,.248,0,.372.009a8.651,8.651,0,0,1,5.626,2.039,8.495,8.495,0,0,1,2.854,5.137h9.57a1.305,1.305,0,1,1,0,2.61H17.072A8.642,8.642,0,0,1,8.591,57.959ZM8.483,43.5a5.872,5.872,0,1,0,.108,11.743A5.872,5.872,0,1,0,8.483,43.5ZM90.625,57.75h0c-.124,0-.249,0-.372-.009a8.651,8.651,0,0,1-5.627-2.04,8.489,8.489,0,0,1-2.853-5.139H72.2a1.3,1.3,0,0,1,0-2.609h9.462A8.6,8.6,0,0,1,98.736,49.37a8.475,8.475,0,0,1-2.367,5.9A7.912,7.912,0,0,1,90.625,57.75ZM90.144,43.5a5.878,5.878,0,0,0-5.869,5.874,5.948,5.948,0,0,0,5.869,5.869,5.872,5.872,0,0,0,0-11.743ZM65.57,34.58a1.615,1.615,0,0,1-.978-.435,1.1,1.1,0,0,1-.406-.813,1.369,1.369,0,0,1,.406-1.038l6.741-6.741A8.592,8.592,0,0,1,84.38,14.463a8.268,8.268,0,0,1,2.53,5.924,8.591,8.591,0,0,1-8.618,8.648,8.118,8.118,0,0,1-5-1.631l-6.737,6.741A1.344,1.344,0,0,1,65.57,34.58ZM78.182,14.572a5.927,5.927,0,0,0,0,11.854,5.927,5.927,0,0,0,0-11.854ZM33.167,34.58a1.618,1.618,0,0,1-.981-.435L25.447,27.4a8.119,8.119,0,0,1-5,1.631,8.548,8.548,0,0,1-6.091-2.5,8.271,8.271,0,0,1-2.528-5.924A8.6,8.6,0,1,1,27.4,25.554l6.746,6.741a1.1,1.1,0,0,1,.4.814,1.369,1.369,0,0,1-.4,1.037A1.351,1.351,0,0,1,33.167,34.58ZM20.445,14.572a5.926,5.926,0,0,0-4.134,10.112,5.883,5.883,0,1,0,4.134-10.112ZM49.367,27.948a1.748,1.748,0,0,1-1.522-1.416v-9.46A8.594,8.594,0,1,1,57.85,8.591a8.651,8.651,0,0,1-2.039,5.627,8.493,8.493,0,0,1-5.138,2.854v9.569A1.264,1.264,0,0,1,49.367,27.948Zm0-25.339A5.949,5.949,0,0,0,43.5,8.483a5.785,5.785,0,0,0,5.677,5.874c.064,0,.126,0,.189,0a5.873,5.873,0,0,0,0-11.745Z" transform="translate(0.59 2.955)" fill="#fefefe"/>
      <g id="Group_5" data-name="Group 5" transform="translate(0 0.643)">
        <path id="Clip_4-5" data-name="Clip 4" d="M0,0H99.916V99.916H0Z" transform="translate(0 1.721)" fill="none"/>
        <g id="Group_5-2" data-name="Group 5" clip-path="url(#clip-path)">
          <path id="Fill_3" data-name="Fill 3" d="M50.069,99.915A9.215,9.215,0,0,1,42.9,84.945a9.078,9.078,0,0,1,5.158-3.182V72.684a1.854,1.854,0,0,1,1.9-1.9,2.3,2.3,0,0,1,2.094,1.841l.023.163v8.972a9.238,9.238,0,0,1,7.174,8.97A9.083,9.083,0,0,1,50.069,99.915ZM49.958,71.97a.669.669,0,0,0-.714.714V82.758l-.5.081a7.828,7.828,0,0,0-6.677,7.9,8.009,8.009,0,0,0,8,8,7.913,7.913,0,0,0,8-8,8.052,8.052,0,0,0-6.679-7.9l-.494-.078V72.88C50.746,72.44,50.422,71.97,49.958,71.97Zm0,25.336a6.462,6.462,0,0,1,0-12.924l.191,0a6.377,6.377,0,0,1,6.271,6.465A6.469,6.469,0,0,1,49.958,97.306Zm.191-11.745-.17,0a5.28,5.28,0,1,0-.021,10.561,5.286,5.286,0,0,0,5.28-5.28A5.2,5.2,0,0,0,50.149,85.561Zm28.733,2.394a9.116,9.116,0,0,1-9.124-8.165,9.343,9.343,0,0,1,1.405-5.944l-6.4-6.4a1.636,1.636,0,0,1-.579-1.2,1.953,1.953,0,0,1,.579-1.484,1.633,1.633,0,0,1,1.3-.54,1.955,1.955,0,0,1,1.385.54l6.493,6.388A8.825,8.825,0,0,1,78.881,69.7a9.125,9.125,0,0,1,6.507,2.673,8.859,8.859,0,0,1,2.7,6.341,9.18,9.18,0,0,1-9.212,9.239ZM66.064,65.366a.528.528,0,0,0-.419.185.84.84,0,0,0-.279.634.528.528,0,0,0,.187.385l7.141,7.138-.289.4a8,8,0,1,0,14.506,4.614,7.7,7.7,0,0,0-2.35-5.507,7.969,7.969,0,0,0-5.68-2.336,7.53,7.53,0,0,0-4.642,1.508l-.406.314-7.219-7.1A.788.788,0,0,0,66.064,65.366ZM21.147,87.955a9.125,9.125,0,0,1-6.51-2.673,8.858,8.858,0,0,1-2.7-6.339A9.179,9.179,0,0,1,21.147,69.7a8.816,8.816,0,0,1,4.936,1.449l6.386-6.386a1.635,1.635,0,0,1,1.3-.541,1.963,1.963,0,0,1,1.388.541,1.713,1.713,0,0,1,.594,1.278,2.064,2.064,0,0,1-.443,1.357l-6.44,6.446a9.347,9.347,0,0,1,1.4,5.945,9.121,9.121,0,0,1-9.122,8.165Zm0-17.072a8,8,0,0,0-8.032,8.053,7.688,7.688,0,0,0,2.35,5.5A8,8,0,0,0,27.622,74.111l-.289-.4,7.094-7.1a.89.89,0,0,0,.139-.525.585.585,0,0,0-.2-.444.854.854,0,0,0-.6-.277.53.53,0,0,0-.42.185L26.2,72.707l-.411-.316A7.523,7.523,0,0,0,21.147,70.883ZM78.881,85.346a6.518,6.518,0,1,1,4.559-1.921A6.485,6.485,0,0,1,78.881,85.346Zm0-11.854A5.337,5.337,0,1,0,82.6,75.06,5.378,5.378,0,0,0,78.881,73.492ZM21.147,85.346a6.518,6.518,0,1,1,4.548-11.123,6.6,6.6,0,0,1,0,9.211A6.5,6.5,0,0,1,21.147,85.346Zm0-11.854A5.336,5.336,0,1,0,24.861,82.6a5.337,5.337,0,0,0-3.713-9.105Zm28.811-8.263A15.27,15.27,0,1,1,65.229,49.96,15.287,15.287,0,0,1,49.958,65.229Zm0-29.359a14.089,14.089,0,1,0,14.09,14.09A14.1,14.1,0,0,0,49.958,35.87Zm0,26.75A12.661,12.661,0,1,1,62.618,49.96,12.673,12.673,0,0,1,49.958,62.62Zm0-24.14A11.479,11.479,0,1,0,61.436,49.96,11.491,11.491,0,0,0,49.958,38.48ZM9.183,59.141A9.192,9.192,0,0,1,0,49.96a8.843,8.843,0,0,1,8.686-8.972c.138,0,.278,0,.417.01a9.227,9.227,0,0,1,5.766,2.016,9.087,9.087,0,0,1,3.178,5.157h9.078a1.9,1.9,0,1,1,0,3.792H18.153A9.23,9.23,0,0,1,9.183,59.141ZM8.7,42.168A7.669,7.669,0,0,0,1.182,49.96a8,8,0,0,0,15.9,1.317l.081-.5h9.965a.714.714,0,1,0,0-1.428H17.049l-.077-.5a7.83,7.83,0,0,0-7.9-6.677l-.065,0C8.9,42.171,8.8,42.168,8.7,42.168ZM91.215,58.933c-.146,0-.273,0-.4-.01a9.226,9.226,0,0,1-5.768-2.017,9.084,9.084,0,0,1-3.176-5.161H72.793a1.9,1.9,0,1,1,0-3.791h8.972A9.188,9.188,0,0,1,99.918,49.96a9.048,9.048,0,0,1-2.534,6.306A8.494,8.494,0,0,1,91.215,58.933Zm-18.422-9.8a.714.714,0,0,0,0,1.427H82.869l.077.5a7.828,7.828,0,0,0,7.9,6.68c.156.008.275.009.371.009a7.319,7.319,0,0,0,5.318-2.3,7.884,7.884,0,0,0,2.2-5.488,8,8,0,0,0-15.9-1.321l-.081.5ZM90.735,56.42A6.462,6.462,0,1,1,97.2,49.96,6.468,6.468,0,0,1,90.735,56.42Zm0-11.742a5.224,5.224,0,0,0-5.278,5.282,5.349,5.349,0,0,0,5.278,5.278,5.28,5.28,0,0,0,0-10.561ZM9.183,56.42a6.463,6.463,0,1,1,6.462-6.46A6.524,6.524,0,0,1,9.183,56.42ZM9.074,44.678a5.225,5.225,0,0,0-5.28,5.282,5.341,5.341,0,0,0,5.389,5.278,5.285,5.285,0,0,0,5.28-5.278A5.343,5.343,0,0,0,9.074,44.678Zm57.087-8.916a2.2,2.2,0,0,1-1.4-.609,1.634,1.634,0,0,1-.577-1.193,1.963,1.963,0,0,1,.579-1.492l6.4-6.4a9.344,9.344,0,0,1-1.405-5.944,9.2,9.2,0,0,1,15.631-5.492,8.853,8.853,0,0,1,2.7,6.337,9.185,9.185,0,0,1-9.212,9.244,8.818,8.818,0,0,1-4.94-1.449l-6.382,6.386A1.951,1.951,0,0,1,66.161,35.762ZM78.881,13.145A7.965,7.965,0,0,0,72.4,25.8l.289.4L65.6,33.3a.777.777,0,0,0-.234.586.521.521,0,0,0,.187.383,1.113,1.113,0,0,0,.607.307.751.751,0,0,0,.567-.265l7.1-7.1.409.316a7.53,7.53,0,0,0,4.642,1.508,8,8,0,0,0,8.03-8.053,7.694,7.694,0,0,0-2.35-5.5A7.971,7.971,0,0,0,78.881,13.145ZM33.757,35.762a2.187,2.187,0,0,1-1.4-.609l-6.384-6.385a8.819,8.819,0,0,1-4.94,1.449,9.123,9.123,0,0,1-6.507-2.676,8.853,8.853,0,0,1-2.7-6.337,9.194,9.194,0,0,1,18.335-1.076,9.337,9.337,0,0,1-1.407,5.943l6.4,6.4a1.645,1.645,0,0,1,.577,1.2,2.025,2.025,0,0,1-1.974,2.094Zm-7.67-8.551h0l7.107,7.107a1.082,1.082,0,0,0,.563.262.739.739,0,0,0,.563-.262.775.775,0,0,0,.232-.587.533.533,0,0,0-.184-.385l-7.145-7.138.288-.4a8,8,0,1,0-14.5-4.609,7.688,7.688,0,0,0,2.35,5.5,7.973,7.973,0,0,0,5.68,2.337,7.53,7.53,0,0,0,4.642-1.508l.408-.315Zm23.871,1.919a2.287,2.287,0,0,1-2.09-1.846l-.023-.161V18.153a9.14,9.14,0,1,1,9.169-3.179,9.071,9.071,0,0,1-5.158,3.181v9.076A1.856,1.856,0,0,1,49.958,29.129ZM49.849,1.182a8.005,8.005,0,0,0-1.319,15.9l.5.078v9.875c.145.441.466.913.931.913a.671.671,0,0,0,.715-.716V17.158l.5-.078a7.825,7.825,0,0,0,6.677-7.9A8.01,8.01,0,0,0,49.849,1.182ZM78.772,27.608a6.479,6.479,0,0,1-4.547-1.915,6.6,6.6,0,0,1,0-9.208,6.473,6.473,0,1,1,4.547,11.123Zm0-11.854a5.335,5.335,0,1,0,3.716,1.567A5.373,5.373,0,0,0,78.772,15.754ZM21.037,27.608a6.519,6.519,0,1,1,4.557-1.924A6.5,6.5,0,0,1,21.037,27.608Zm0-11.854a5.335,5.335,0,1,0,3.713,1.567A5.382,5.382,0,0,0,21.037,15.754Zm28.733-.212A6.377,6.377,0,0,1,43.5,9.074a6.46,6.46,0,1,1,6.458,6.462Zm.189-11.75a5.35,5.35,0,0,0-5.276,5.282,5.2,5.2,0,0,0,5.087,5.286l.167-.005a5.235,5.235,0,0,0,5.3-5.28A5.225,5.225,0,0,0,49.958,3.792Z" transform="translate(-0.001 1.721)" fill="#fefefe"/>
        </g>
      </g>
    </g>
    <g id="sector_icon-2" data-name="sector icon" transform="translate(964.118 468.602) rotate(-30)" opacity="0.04">
      <path id="Fill_1-2" data-name="Fill 1" d="M58.993,117.721a10.3,10.3,0,0,1-7.814-16.95,10.128,10.128,0,0,1,6.125-3.4V85.957A1.5,1.5,0,0,1,58.861,84.4a2.055,2.055,0,0,1,1.82,1.685V97.368a10.306,10.306,0,0,1,8.554,10.111,10.182,10.182,0,0,1-10.241,10.241Zm.093-17.115c-.075,0-.151,0-.225,0a7,7,0,1,0,7,7,7.092,7.092,0,0,0-1.968-4.932A6.608,6.608,0,0,0,59.086,100.605Zm34.26,2.856a10.2,10.2,0,0,1-8.3-16.207l-8.038-8.038a1.313,1.313,0,0,1-.484-.969,1.628,1.628,0,0,1,.484-1.235,1.335,1.335,0,0,1,1.054-.486,1.643,1.643,0,0,1,1.15.486l8.167,8.038a9.674,9.674,0,0,1,5.963-1.945,10.182,10.182,0,0,1,7.26,2.982,9.868,9.868,0,0,1,3.016,7.068,10.238,10.238,0,0,1-10.276,10.306Zm0-17.245a7.067,7.067,0,0,0,0,14.134,7.067,7.067,0,0,0,0-14.134ZM24.51,103.461a10.194,10.194,0,0,1-7.265-2.982,9.863,9.863,0,0,1-3.014-7.064A10.236,10.236,0,0,1,24.51,83.105,9.674,9.674,0,0,1,30.47,85.05L38.5,77.012a1.34,1.34,0,0,1,1.056-.486,1.651,1.651,0,0,1,1.153.486,1.607,1.607,0,0,1,.124,2.2L32.8,87.254a10.2,10.2,0,0,1-8.293,16.207Zm0-17.245a7.067,7.067,0,0,0,0,14.134,7.067,7.067,0,0,0,0-14.134Zm34.351-9.852a17.428,17.428,0,1,1,12.4-5.1A17.4,17.4,0,0,1,58.861,76.364Zm0-31.893A14.391,14.391,0,1,0,73.25,58.864,14.406,14.406,0,0,0,58.861,44.471ZM10.244,69.1A10.254,10.254,0,0,1,0,58.864,10.109,10.109,0,0,1,2.822,51.83a9.433,9.433,0,0,1,6.849-2.962c.147,0,.3,0,.442.01a10.314,10.314,0,0,1,6.709,2.431,10.128,10.128,0,0,1,3.4,6.125H31.637a1.556,1.556,0,1,1,0,3.111H20.355A10.3,10.3,0,0,1,10.244,69.1Zm-.13-17.245a7,7,0,1,0,.13,14,7,7,0,1,0-.13-14Zm97.938,17h0c-.147,0-.3,0-.443-.01a10.314,10.314,0,0,1-6.71-2.432,10.123,10.123,0,0,1-3.4-6.127H86.087a1.556,1.556,0,0,1,0-3.111H97.368a10.248,10.248,0,0,1,20.355,1.688,10.1,10.1,0,0,1-2.822,7.031A9.434,9.434,0,0,1,108.053,68.856Zm-.573-17a7.009,7.009,0,0,0-7,7,7.091,7.091,0,0,0,7,7,7,7,0,0,0,0-14Zm-29.3-10.63a1.933,1.933,0,0,1-1.167-.518,1.313,1.313,0,0,1-.484-.969,1.633,1.633,0,0,1,.484-1.238l8.038-8.037a10.244,10.244,0,0,1,15.556-13.223,9.859,9.859,0,0,1,3.016,7.063A10.243,10.243,0,0,1,93.346,34.618a9.673,9.673,0,0,1-5.963-1.945l-8.032,8.038A1.6,1.6,0,0,1,78.179,41.23ZM93.217,17.375a7.067,7.067,0,0,0,0,14.133,7.067,7.067,0,0,0,0-14.133ZM39.545,41.23a1.936,1.936,0,0,1-1.17-.518l-8.034-8.038a9.679,9.679,0,0,1-5.963,1.945,10.193,10.193,0,0,1-7.263-2.984A9.862,9.862,0,0,1,14.1,24.571a10.255,10.255,0,1,1,18.57,5.9L40.714,38.5a1.316,1.316,0,0,1,.482.971,1.632,1.632,0,0,1-.482,1.236A1.609,1.609,0,0,1,39.545,41.23ZM24.377,17.375a7.067,7.067,0,0,0,0,14.133,7.067,7.067,0,0,0,0-14.133ZM58.861,33.323a2.086,2.086,0,0,1-1.815-1.688V20.355A10.247,10.247,0,1,1,68.975,10.244a10.314,10.314,0,0,1-2.431,6.709,10.128,10.128,0,0,1-6.126,3.4V31.764A1.507,1.507,0,0,1,58.861,33.323Zm0-30.211a7.093,7.093,0,0,0-6.995,7,6.9,6.9,0,0,0,6.768,7c.075,0,.151,0,.227,0a7,7,0,0,0,0-14Z" transform="translate(0.704 3.523)" fill="#fefefe"/>
      <g id="Group_5-3" data-name="Group 5" transform="translate(0 0.767)">
        <path id="Clip_4-6" data-name="Clip 4" d="M0,0H119.13V119.13H0Z" transform="translate(0 2.052)" fill="none"/>
        <g id="Group_5-4" data-name="Group 5" clip-path="url(#clip-path-2)">
          <path id="Fill_3-2" data-name="Fill 3" d="M59.7,119.13a10.987,10.987,0,0,1-8.543-17.849,10.827,10.827,0,0,1,6.15-3.795V86.662a2.21,2.21,0,0,1,2.26-2.26,2.738,2.738,0,0,1,2.5,2.2l.028.194v10.7a11.011,11.011,0,0,1,8.554,10.695A10.829,10.829,0,0,1,59.7,119.13Zm-.133-33.32a.8.8,0,0,0-.85.851V98.673l-.595.1a9.335,9.335,0,0,0-7.961,9.416,9.549,9.549,0,0,0,9.54,9.536,9.435,9.435,0,0,0,9.536-9.536,9.6,9.6,0,0,0-7.964-9.419l-.59-.093V86.9C60.5,86.371,60.118,85.811,59.565,85.811Zm0,30.209a7.7,7.7,0,0,1,0-15.41l.229,0a7.6,7.6,0,0,1,7.476,7.708A7.714,7.714,0,0,1,59.565,116.019Zm.229-14-.2,0a6.3,6.3,0,1,0-.026,12.591,6.3,6.3,0,0,0,6.3-6.3A6.194,6.194,0,0,0,59.793,102.015Zm34.258,2.855a10.87,10.87,0,0,1-10.879-9.735,11.137,11.137,0,0,1,1.675-7.086L77.221,80.42a1.95,1.95,0,0,1-.69-1.432,2.326,2.326,0,0,1,.69-1.769,1.949,1.949,0,0,1,1.545-.644,2.332,2.332,0,0,1,1.651.644l7.742,7.618a10.513,10.513,0,0,1,5.892-1.731,10.879,10.879,0,0,1,7.759,3.188,10.556,10.556,0,0,1,3.224,7.561A10.944,10.944,0,0,1,94.051,104.87ZM78.768,77.936a.627.627,0,0,0-.5.221,1,1,0,0,0-.333.755.625.625,0,0,0,.223.459l8.514,8.511-.344.481a9.541,9.541,0,1,0,17.294,5.5,9.18,9.18,0,0,0-2.8-6.566,9.505,9.505,0,0,0-6.773-2.785,8.984,8.984,0,0,0-5.535,1.8l-.484.374-8.607-8.468A.952.952,0,0,0,78.768,77.936ZM25.214,104.87a10.882,10.882,0,0,1-7.762-3.187,10.559,10.559,0,0,1-3.224-7.558,10.946,10.946,0,0,1,10.985-11.02A10.5,10.5,0,0,1,31.1,84.833l7.615-7.615a1.951,1.951,0,0,1,1.546-.645,2.342,2.342,0,0,1,1.655.645,2.042,2.042,0,0,1,.707,1.525,2.458,2.458,0,0,1-.527,1.617l-7.679,7.685a11.147,11.147,0,0,1,1.674,7.09,10.875,10.875,0,0,1-10.876,9.735Zm0-20.355a9.535,9.535,0,0,0-9.576,9.6,9.165,9.165,0,0,0,2.8,6.561A9.538,9.538,0,0,0,32.934,88.364l-.344-.481,8.457-8.46a1.064,1.064,0,0,0,.166-.626.7.7,0,0,0-.237-.53,1.015,1.015,0,0,0-.713-.33.631.631,0,0,0-.5.221L31.234,86.69l-.49-.377A8.971,8.971,0,0,0,25.214,84.515Zm68.836,17.244A7.771,7.771,0,1,1,99.476,88.5a7.771,7.771,0,0,1-5.425,13.262Zm0-14.133a6.363,6.363,0,1,0,4.431,1.868A6.411,6.411,0,0,0,94.051,87.626ZM25.214,101.759A7.771,7.771,0,1,1,30.637,88.5a7.876,7.876,0,0,1,0,10.983A7.75,7.75,0,0,1,25.214,101.759Zm0-14.133a6.363,6.363,0,1,0,4.427,10.856,6.363,6.363,0,0,0-4.427-10.856Zm34.35-9.852A18.207,18.207,0,1,1,77.773,59.568,18.226,18.226,0,0,1,59.565,77.774Zm0-35a16.8,16.8,0,1,0,16.8,16.8A16.817,16.817,0,0,0,59.565,42.769Zm0,31.893A15.1,15.1,0,1,1,74.659,59.568,15.11,15.11,0,0,1,59.565,74.662Zm0-28.782A13.686,13.686,0,1,0,73.25,59.568,13.7,13.7,0,0,0,59.565,45.88ZM10.949,70.514A10.96,10.96,0,0,1,0,59.568a10.543,10.543,0,0,1,10.356-10.7c.165,0,.332,0,.5.012a11,11,0,0,1,6.875,2.4,10.833,10.833,0,0,1,3.789,6.149H32.342a2.26,2.26,0,1,1,0,4.521h-10.7a11.03,11.03,0,0,1-10.695,8.559Zm-.572-20.237a9.144,9.144,0,0,0-8.967,9.292,9.543,9.543,0,0,0,18.955,1.57l.1-.592H32.342a.851.851,0,1,0,0-1.7H20.327l-.093-.595a9.335,9.335,0,0,0-9.416-7.961l-.08,0C10.6,50.28,10.49,50.277,10.376,50.277Zm98.381,19.989c-.179,0-.33,0-.477-.011a11,11,0,0,1-6.877-2.406A10.832,10.832,0,0,1,97.616,61.7H86.792a2.26,2.26,0,0,1,0-4.521h10.7a10.954,10.954,0,0,1,21.643,2.393,10.788,10.788,0,0,1-3.021,7.519A10.122,10.122,0,0,1,108.757,70.266ZM86.792,58.585a.851.851,0,1,0,0,1.7H98.806l.093.595a9.332,9.332,0,0,0,9.416,7.964c.156.007.293.011.443.011a8.727,8.727,0,0,0,6.34-2.745,9.4,9.4,0,0,0,2.626-6.543,9.543,9.543,0,0,0-18.955-1.576l-.1.592Zm21.393,8.685a7.7,7.7,0,1,1,7.7-7.7A7.71,7.71,0,0,1,108.185,67.27Zm0-14a6.229,6.229,0,0,0-6.293,6.3,6.377,6.377,0,0,0,6.293,6.293,6.3,6.3,0,0,0,0-12.592Zm-97.236,14a7.705,7.705,0,1,1,7.7-7.7A7.778,7.778,0,0,1,10.949,67.27Zm-.13-14a6.23,6.23,0,0,0-6.3,6.3,6.367,6.367,0,0,0,6.425,6.293,6.3,6.3,0,0,0,6.3-6.293A6.371,6.371,0,0,0,10.819,53.269Zm68.065-10.63a2.621,2.621,0,0,1-1.666-.727,1.952,1.952,0,0,1-.688-1.423,2.337,2.337,0,0,1,.69-1.778l7.626-7.627A11.138,11.138,0,0,1,83.172,24,10.975,10.975,0,0,1,101.81,17.45a10.556,10.556,0,0,1,3.224,7.555A10.95,10.95,0,0,1,94.051,36.028a10.511,10.511,0,0,1-5.89-1.728l-7.609,7.615A2.329,2.329,0,0,1,78.884,42.639ZM94.051,15.672A9.5,9.5,0,0,0,86.33,30.767l.344.481-8.458,8.46a.929.929,0,0,0-.279.7.618.618,0,0,0,.223.456,1.331,1.331,0,0,0,.725.366.894.894,0,0,0,.676-.316l8.469-8.471.487.377a8.985,8.985,0,0,0,5.535,1.8,9.54,9.54,0,0,0,9.573-9.6,9.174,9.174,0,0,0-2.8-6.561A9.505,9.505,0,0,0,94.051,15.672Zm-53.8,26.968a2.6,2.6,0,0,1-1.665-.727L30.972,34.3a10.512,10.512,0,0,1-5.89,1.728,10.88,10.88,0,0,1-7.759-3.191A10.553,10.553,0,0,1,14.1,25.282,10.963,10.963,0,0,1,35.961,24a11.129,11.129,0,0,1-1.678,7.085l7.632,7.627a1.957,1.957,0,0,1,.688,1.431,2.414,2.414,0,0,1-2.354,2.5ZM31.1,32.443h0l8.474,8.474a1.3,1.3,0,0,0,.671.312.884.884,0,0,0,.671-.312.928.928,0,0,0,.276-.7.63.63,0,0,0-.221-.459l-8.519-8.511.344-.481a9.539,9.539,0,1,0-17.292-5.5,9.165,9.165,0,0,0,2.8,6.561,9.506,9.506,0,0,0,6.772,2.787,8.984,8.984,0,0,0,5.535-1.8l.486-.377Zm28.461,2.288a2.726,2.726,0,0,1-2.491-2.2l-.028-.192v-10.7a10.9,10.9,0,1,1,10.932-3.789,10.817,10.817,0,0,1-6.15,3.793V32.468A2.213,2.213,0,0,1,59.565,34.731Zm-.13-33.322a9.545,9.545,0,0,0-1.572,18.958l.592.093V32.234c.173.526.556,1.088,1.11,1.088a.8.8,0,0,0,.854-.854V20.457l.595-.093a9.331,9.331,0,0,0,7.961-9.416A9.55,9.55,0,0,0,59.435,1.409ZM93.921,32.917A7.728,7.728,0,0,1,88.5,30.633a7.871,7.871,0,0,1,0-10.979,7.718,7.718,0,1,1,5.422,13.262Zm0-14.134a6.361,6.361,0,1,0,4.431,1.868A6.411,6.411,0,0,0,93.921,18.783ZM25.082,32.917a7.773,7.773,0,1,1,5.433-2.294A7.745,7.745,0,0,1,25.082,32.917Zm0-14.134a6.361,6.361,0,1,0,4.427,1.868A6.422,6.422,0,0,0,25.082,18.783Zm34.258-.254a7.6,7.6,0,0,1-7.474-7.71,7.7,7.7,0,1,1,7.7,7.7Zm.225-14.008a6.378,6.378,0,0,0-6.29,6.3,6.194,6.194,0,0,0,6.065,6.3l.2-.006a6.241,6.241,0,0,0,6.322-6.3A6.23,6.23,0,0,0,59.565,4.521Z" transform="translate(-0.001 2.052)" fill="#fefefe"/>
        </g>
      </g>
    </g>
    <g id="sector_icon-3" data-name="sector icon" transform="translate(1267.738 492.19) rotate(150)" opacity="0.2">
      <path id="Fill_1-3" data-name="Fill 1" d="M25.691,51.266a4.487,4.487,0,0,1-3.4-7.382A4.41,4.41,0,0,1,24.955,42.4v-4.97a.655.655,0,0,1,.678-.677.9.9,0,0,1,.793.734V42.4a4.488,4.488,0,0,1,3.724,4.4,4.434,4.434,0,0,1-4.459,4.46Zm.041-7.454-.1,0a3.048,3.048,0,1,0,3.048,3.048,3.089,3.089,0,0,0-.857-2.148A2.877,2.877,0,0,0,25.731,43.812Zm14.92,1.244A4.442,4.442,0,0,1,37.038,38l-3.5-3.5a.57.57,0,0,1-.211-.421.708.708,0,0,1,.211-.538A.581.581,0,0,1,34,33.326a.714.714,0,0,1,.5.212l3.557,3.5a4.219,4.219,0,0,1,2.6-.847,4.43,4.43,0,0,1,3.161,1.3,4.3,4.3,0,0,1,1.313,3.078,4.459,4.459,0,0,1-4.474,4.488Zm0-7.51a3.077,3.077,0,0,0,0,6.154,3.077,3.077,0,0,0,0-6.154Zm-29.977,7.51a4.44,4.44,0,0,1-3.164-1.3A4.3,4.3,0,0,1,6.2,40.681a4.457,4.457,0,0,1,4.476-4.49,4.215,4.215,0,0,1,2.6.847l3.5-3.5a.585.585,0,0,1,.46-.212.719.719,0,0,1,.5.212.6.6,0,0,1,.214.409.763.763,0,0,1-.16.55l-3.5,3.5a4.442,4.442,0,0,1-3.612,7.058Zm0-7.51A3.077,3.077,0,1,0,12.819,42.8a3.077,3.077,0,0,0-2.145-5.251Zm14.959-4.291a7.589,7.589,0,1,1,5.4-2.223A7.578,7.578,0,0,1,25.633,33.255Zm0-13.889A6.267,6.267,0,1,0,31.9,25.634,6.273,6.273,0,0,0,25.633,19.366ZM4.461,30.094A4.466,4.466,0,0,1,0,25.634a4.288,4.288,0,0,1,4.211-4.352c.064,0,.129,0,.193,0a4.492,4.492,0,0,1,2.921,1.058,4.412,4.412,0,0,1,1.482,2.668h4.969a.677.677,0,1,1,0,1.354H8.865A4.488,4.488,0,0,1,4.461,30.094ZM4.4,22.585a3.049,3.049,0,1,0,.057,6.1,3.049,3.049,0,1,0-.057-6.1Zm42.651,7.4h0c-.065,0-.13,0-.194,0a4.493,4.493,0,0,1-2.922-1.059,4.407,4.407,0,0,1-1.482-2.668H37.49a.678.678,0,0,1,0-1.355H42.4a4.463,4.463,0,0,1,8.864.735A4.288,4.288,0,0,1,47.056,29.985Zm-.251-7.4a3.052,3.052,0,0,0-3.047,3.049,3.088,3.088,0,0,0,3.047,3.047,3.048,3.048,0,1,0,0-6.1Zm-12.759-4.63a.842.842,0,0,1-.508-.226.572.572,0,0,1-.211-.422.711.711,0,0,1,.211-.539l3.5-3.5A4.461,4.461,0,0,1,43.812,7.51a4.294,4.294,0,0,1,1.313,3.076,4.461,4.461,0,0,1-4.474,4.491,4.218,4.218,0,0,1-2.6-.847l-3.5,3.5A.7.7,0,0,1,34.046,17.955ZM40.595,7.566a3.077,3.077,0,0,0,0,6.154,3.077,3.077,0,0,0,0-6.154ZM17.222,17.955a.838.838,0,0,1-.509-.226l-3.5-3.5a4.219,4.219,0,0,1-2.6.847,4.438,4.438,0,0,1-3.163-1.3A4.3,4.3,0,0,1,6.141,10.7a4.466,4.466,0,1,1,8.087,2.567l3.5,3.5a.573.573,0,0,1,.21.423.71.71,0,0,1-.21.538A.7.7,0,0,1,17.222,17.955ZM10.616,7.566a3.077,3.077,0,0,0,0,6.154,3.077,3.077,0,0,0,0-6.154Zm15.017,6.945a.907.907,0,0,1-.79-.735V8.865a4.463,4.463,0,1,1,5.195-4.4,4.492,4.492,0,0,1-1.058,2.921,4.412,4.412,0,0,1-2.668,1.482v4.968A.656.656,0,0,1,25.633,14.512Zm0-13.157A3.089,3.089,0,0,0,22.586,4.4a3,3,0,0,0,2.948,3.05l.1,0a3.049,3.049,0,0,0,0-6.1Z" transform="translate(0.306 1.534)" fill="#fefefe"/>
      <g id="Group_5-5" data-name="Group 5" transform="translate(0 0.334)">
        <path id="Clip_4-7" data-name="Clip 4" d="M0,0H51.879V51.879H0Z" transform="translate(0 0.893)" fill="none"/>
        <g id="Group_5-6" data-name="Group 5" clip-path="url(#clip-path-3)">
          <path id="Fill_3-3" data-name="Fill 3" d="M26,51.88a4.773,4.773,0,0,1-4.768-4.767,4.712,4.712,0,0,1,3.726-4.658V37.74a.963.963,0,0,1,.985-.984,1.192,1.192,0,0,1,1.087.956l.013.085v4.658a4.8,4.8,0,0,1,3.724,4.658A4.716,4.716,0,0,1,26,51.88ZM25.94,37.369a.347.347,0,0,0-.371.371v5.231l-.259.041a4.066,4.066,0,0,0-3.467,4.1A4.159,4.159,0,0,0,26,51.266a4.109,4.109,0,0,0,4.153-4.153,4.18,4.18,0,0,0-3.468-4.1l-.257-.041V37.841C26.349,37.613,26.18,37.369,25.94,37.369Zm0,13.155a3.355,3.355,0,0,1,0-6.71l.1,0A3.311,3.311,0,0,1,29.3,47.169,3.359,3.359,0,0,1,25.94,50.524Zm.1-6.1-.088,0a2.741,2.741,0,1,0-.011,5.483,2.745,2.745,0,0,0,2.741-2.741A2.7,2.7,0,0,0,26.039,44.426ZM40.958,45.67a4.747,4.747,0,0,1-4.009-7.326l-3.321-3.322a.85.85,0,0,1-.3-.624,1.013,1.013,0,0,1,.3-.77.848.848,0,0,1,.673-.281,1.014,1.014,0,0,1,.719.281l3.371,3.317a4.577,4.577,0,0,1,2.567-.754,4.735,4.735,0,0,1,3.379,1.389,4.6,4.6,0,0,1,1.4,3.292,4.768,4.768,0,0,1-4.783,4.8ZM34.3,33.94a.274.274,0,0,0-.218.1.438.438,0,0,0-.145.328.272.272,0,0,0,.1.2l3.708,3.707-.15.21a4.155,4.155,0,1,0,7.532,2.4,4,4,0,0,0-1.22-2.86A4.138,4.138,0,0,0,40.958,36.8a3.913,3.913,0,0,0-2.411.783l-.211.163-3.748-3.687A.409.409,0,0,0,34.3,33.94ZM10.98,45.67A4.74,4.74,0,0,1,7.6,44.281,4.6,4.6,0,0,1,6.2,40.99a4.768,4.768,0,0,1,4.784-4.8,4.578,4.578,0,0,1,2.563.752l3.316-3.316a.849.849,0,0,1,.673-.281,1.02,1.02,0,0,1,.721.281.89.89,0,0,1,.309.663,1.071,1.071,0,0,1-.229.7l-3.344,3.347A4.748,4.748,0,0,1,10.98,45.67Zm0-8.865a4.152,4.152,0,0,0-4.17,4.181,3.994,3.994,0,0,0,1.22,2.858,4.153,4.153,0,0,0,6.312-5.362l-.149-.21,3.683-3.685a.461.461,0,0,0,.073-.273.3.3,0,0,0-.1-.23.445.445,0,0,0-.311-.144.273.273,0,0,0-.218.1L13.6,37.752l-.213-.165A3.909,3.909,0,0,0,10.98,36.8Zm29.978,7.51a3.384,3.384,0,1,1,2.367-1A3.368,3.368,0,0,1,40.958,44.314Zm0-6.154a2.77,2.77,0,1,0,1.929.814A2.793,2.793,0,0,0,40.958,38.16ZM10.98,44.314a3.384,3.384,0,1,1,2.362-5.775,3.429,3.429,0,0,1,0,4.783A3.374,3.374,0,0,1,10.98,44.314Zm0-6.154a2.77,2.77,0,1,0,1.929,4.727A2.77,2.77,0,0,0,10.98,38.16Zm14.96-4.291a7.929,7.929,0,1,1,7.929-7.928A7.937,7.937,0,0,1,25.94,33.869Zm0-15.243a7.315,7.315,0,1,0,7.315,7.315A7.323,7.323,0,0,0,25.94,18.625Zm0,13.889a6.574,6.574,0,1,1,6.573-6.574A6.58,6.58,0,0,1,25.94,32.514Zm0-12.534a5.96,5.96,0,1,0,5.96,5.961A5.967,5.967,0,0,0,25.94,19.98ZM4.768,30.708A4.773,4.773,0,0,1,0,25.941a4.591,4.591,0,0,1,4.51-4.659c.072,0,.144,0,.216.005A4.7,4.7,0,0,1,9.37,25.012h4.714a.984.984,0,1,1,0,1.968H9.426A4.793,4.793,0,0,1,4.768,30.708Zm-.249-8.814A3.982,3.982,0,0,0,.614,25.941a4.156,4.156,0,0,0,8.255.684l.041-.258h5.174a.37.37,0,1,0,0-.741H8.852l-.041-.259a4.065,4.065,0,0,0-4.1-3.467H4.677C4.618,21.9,4.568,21.894,4.519,21.894ZM47.362,30.6c-.069,0-.137,0-.207-.005a4.7,4.7,0,0,1-4.644-3.727H37.8a.985.985,0,0,1,0-1.969h4.658a4.771,4.771,0,0,1,9.426,1.042,4.7,4.7,0,0,1-1.316,3.274A4.406,4.406,0,0,1,47.362,30.6ZM37.8,25.512a.371.371,0,0,0,0,.742h5.232l.041.259a4.063,4.063,0,0,0,4.1,3.468c.078,0,.135.005.193.005a3.8,3.8,0,0,0,2.761-1.2,4.1,4.1,0,0,0,1.144-2.85,4.156,4.156,0,0,0-8.255-.686l-.041.257ZM47.112,29.3a3.355,3.355,0,1,1,3.355-3.354A3.358,3.358,0,0,1,47.112,29.3Zm0-6.1a2.713,2.713,0,0,0-2.741,2.743,2.777,2.777,0,0,0,2.741,2.74,2.742,2.742,0,1,0,0-5.484ZM4.768,29.3a3.355,3.355,0,1,1,3.355-3.354A3.387,3.387,0,0,1,4.768,29.3Zm-.057-6.1A2.713,2.713,0,0,0,1.97,25.941a2.773,2.773,0,0,0,2.8,2.74,2.744,2.744,0,0,0,2.741-2.74A2.774,2.774,0,0,0,4.712,23.2Zm29.642-4.629a1.136,1.136,0,0,1-.725-.317.846.846,0,0,1-.3-.62,1.017,1.017,0,0,1,.3-.774l3.321-3.321A4.768,4.768,0,0,1,44.337,7.6a4.6,4.6,0,0,1,1.4,3.29,4.769,4.769,0,0,1-4.783,4.8,4.575,4.575,0,0,1-2.565-.752l-3.314,3.316A1.015,1.015,0,0,1,34.353,18.569ZM40.958,6.825A4.135,4.135,0,0,0,37.595,13.4l.15.21-3.684,3.685a.405.405,0,0,0-.122.3.269.269,0,0,0,.1.2.583.583,0,0,0,.316.159.391.391,0,0,0,.294-.138l3.688-3.689.212.165a3.913,3.913,0,0,0,2.411.783,4.156,4.156,0,0,0,4.169-4.181,4,4,0,0,0-1.22-2.858A4.138,4.138,0,0,0,40.958,6.825ZM17.528,18.569a1.131,1.131,0,0,1-.725-.317l-3.316-3.315a4.576,4.576,0,0,1-2.565.752A4.736,4.736,0,0,1,7.544,14.3a4.6,4.6,0,0,1-1.4-3.29,4.773,4.773,0,1,1,8.79,2.527l3.323,3.321a.853.853,0,0,1,.3.624,1.052,1.052,0,0,1-1.025,1.087Zm-3.983-4.441h0l3.69,3.69a.561.561,0,0,0,.292.136.386.386,0,0,0,.292-.136.409.409,0,0,0,.121-.305.276.276,0,0,0-.1-.2l-3.71-3.706.149-.21a4.154,4.154,0,1,0-7.53-2.393,3.987,3.987,0,0,0,1.22,2.857,4.136,4.136,0,0,0,2.948,1.214,3.913,3.913,0,0,0,2.411-.783l.211-.164Zm12.395,1a1.187,1.187,0,0,1-1.085-.958l-.012-.083V9.426a4.77,4.77,0,1,1,5.809-4.657,4.711,4.711,0,0,1-3.726,4.658v4.712A.964.964,0,0,1,25.94,15.125ZM25.883.614A4.157,4.157,0,0,0,25.2,8.87l.258.04v5.127c.075.229.242.474.483.474a.349.349,0,0,0,.372-.373V8.909l.259-.041a4.064,4.064,0,0,0,3.467-4.1A4.159,4.159,0,0,0,25.883.614ZM40.9,14.334a3.368,3.368,0,0,1-2.362-.994,3.43,3.43,0,0,1,0-4.782A3.361,3.361,0,1,1,40.9,14.334Zm0-6.154a2.77,2.77,0,1,0,1.93.814A2.792,2.792,0,0,0,40.9,8.18ZM10.922,14.334a3.385,3.385,0,1,1,2.366-1A3.373,3.373,0,0,1,10.922,14.334Zm0-6.154a2.77,2.77,0,1,0,1.929.814A2.795,2.795,0,0,0,10.922,8.18Zm14.919-.111a3.312,3.312,0,0,1-3.255-3.358A3.354,3.354,0,1,1,25.94,8.067Zm.1-6.1A2.778,2.778,0,0,0,23.2,4.712a2.7,2.7,0,0,0,2.641,2.744l.087,0a2.718,2.718,0,0,0,2.752-2.741A2.713,2.713,0,0,0,25.94,1.968Z" transform="translate(0 0.893)" fill="#fefefe"/>
        </g>
      </g>
    </g>
    <g id="sector_icon-4" data-name="sector icon" transform="translate(1188 527)" opacity="0.05">
      <path id="Fill_1-4" data-name="Fill 1" d="M16.176,32.278a2.825,2.825,0,0,1-2.142-4.648,2.776,2.776,0,0,1,1.679-.933V23.569a.413.413,0,0,1,.427-.427.564.564,0,0,1,.5.462V26.7a2.827,2.827,0,0,1,2.345,2.773A2.778,2.778,0,0,1,16.176,32.278Zm.026-4.693h-.063a1.919,1.919,0,1,0,1.92,1.919,1.944,1.944,0,0,0-.539-1.352A1.811,1.811,0,0,0,16.2,27.586Zm9.394.782a2.8,2.8,0,0,1-2.275-4.443l-2.2-2.2a.36.36,0,0,1-.133-.266.444.444,0,0,1,.133-.338.365.365,0,0,1,.289-.134.449.449,0,0,1,.315.134l2.239,2.2a2.654,2.654,0,0,1,1.635-.533,2.793,2.793,0,0,1,1.991.817,2.706,2.706,0,0,1,.827,1.938A2.807,2.807,0,0,1,25.6,28.368Zm0-4.728a1.938,1.938,0,0,0,0,3.875,1.938,1.938,0,0,0,0-3.875ZM6.72,28.368a2.8,2.8,0,0,1-1.992-.817A2.7,2.7,0,0,1,3.9,25.614,2.807,2.807,0,0,1,6.72,22.787a2.652,2.652,0,0,1,1.634.533l2.2-2.2a.368.368,0,0,1,.29-.134.452.452,0,0,1,.316.134.377.377,0,0,1,.135.257.48.48,0,0,1-.1.347l-2.2,2.2A2.8,2.8,0,0,1,6.72,28.368Zm0-4.728a1.938,1.938,0,0,0,0,3.875,1.938,1.938,0,0,0,0-3.875Zm9.418-2.7a4.779,4.779,0,1,1,3.4-1.4A4.77,4.77,0,0,1,16.139,20.938Zm0-8.745a3.946,3.946,0,1,0,3.946,3.946A3.95,3.95,0,0,0,16.139,12.193ZM2.809,18.948A2.812,2.812,0,0,1,0,16.14,2.7,2.7,0,0,1,2.652,13.4l.121,0a2.828,2.828,0,0,1,1.84.667,2.777,2.777,0,0,1,.933,1.68H8.674a.427.427,0,1,1,0,.853H5.582A2.827,2.827,0,0,1,2.809,18.948ZM2.773,14.22a1.919,1.919,0,1,0,.036,3.839,1.919,1.919,0,1,0-.036-3.839Zm26.854,4.659-.122,0a2.828,2.828,0,0,1-1.84-.667,2.775,2.775,0,0,1-.932-1.68H23.6a.427.427,0,0,1,0-.853H26.7a2.81,2.81,0,0,1,5.582.463A2.7,2.7,0,0,1,29.627,18.879ZM29.47,14.22a1.921,1.921,0,0,0-1.919,1.92,1.944,1.944,0,0,0,1.919,1.919,1.919,1.919,0,0,0,0-3.839ZM21.436,11.3a.529.529,0,0,1-.319-.142.36.36,0,0,1-.133-.266.447.447,0,0,1,.133-.339l2.2-2.2a2.809,2.809,0,0,1,4.266-3.625,2.7,2.7,0,0,1,.827,1.936A2.808,2.808,0,0,1,25.6,9.492a2.653,2.653,0,0,1-1.635-.534l-2.2,2.2A.437.437,0,0,1,21.436,11.3Zm4.123-6.541a1.938,1.938,0,0,0,0,3.875,1.938,1.938,0,0,0,0-3.875ZM10.843,11.3a.531.531,0,0,1-.321-.142l-2.2-2.2a2.658,2.658,0,0,1-1.635.534,2.8,2.8,0,0,1-1.992-.818,2.7,2.7,0,0,1-.826-1.937A2.812,2.812,0,1,1,8.959,8.354l2.2,2.2a.361.361,0,0,1,.132.267.446.446,0,0,1-.132.338A.439.439,0,0,1,10.843,11.3ZM6.684,4.764A1.937,1.937,0,0,0,5.332,8.069,1.923,1.923,0,1,0,6.684,4.764Zm9.454,4.373a.572.572,0,0,1-.5-.463V5.582a2.81,2.81,0,1,1,3.271-2.773,2.828,2.828,0,0,1-.667,1.84,2.777,2.777,0,0,1-1.68.933V8.709A.413.413,0,0,1,16.139,9.137Zm0-8.284a1.944,1.944,0,0,0-1.918,1.92,1.891,1.891,0,0,0,1.855,1.921h.062a1.92,1.92,0,1,0,0-3.839Z" transform="translate(0.193 0.966)" fill="#fefefe"/>
      <g id="Group_5-7" data-name="Group 5" transform="translate(0 0.21)">
        <path id="Clip_4-8" data-name="Clip 4" d="M0,0H32.665V32.665H0Z" transform="translate(0 0.563)" fill="none"/>
        <g id="Group_5-8" data-name="Group 5" clip-path="url(#clip-path-4)">
          <path id="Fill_3-4" data-name="Fill 3" d="M16.368,32.665a3,3,0,0,1-3-3,2.967,2.967,0,0,1,2.345-2.933V23.762a.606.606,0,0,1,.62-.619.752.752,0,0,1,.685.6l.007.053v2.933a3.019,3.019,0,0,1,2.345,2.932A2.97,2.97,0,0,1,16.368,32.665Zm-.036-9.136a.218.218,0,0,0-.233.233v3.294l-.163.026a2.56,2.56,0,0,0-2.183,2.581,2.618,2.618,0,0,0,2.615,2.615,2.588,2.588,0,0,0,2.615-2.615A2.632,2.632,0,0,0,16.8,27.081l-.162-.025V23.827C16.59,23.683,16.484,23.529,16.332,23.529Zm0,8.283a2.112,2.112,0,0,1,0-4.225H16.4A2.084,2.084,0,0,1,18.445,29.7,2.115,2.115,0,0,1,16.332,31.811Zm.063-3.839H16.34a1.726,1.726,0,1,0-.007,3.452A1.728,1.728,0,0,0,18.059,29.7,1.7,1.7,0,0,0,16.4,27.972Zm9.393.783a2.989,2.989,0,0,1-2.524-4.613l-2.091-2.092a.536.536,0,0,1-.189-.393.639.639,0,0,1,.189-.485A.535.535,0,0,1,21.6,21a.639.639,0,0,1,.453.177l2.122,2.089a2.89,2.89,0,0,1,1.616-.474,2.981,2.981,0,0,1,2.127.874,2.89,2.89,0,0,1,.884,2.073,3,3,0,0,1-3.01,3.021ZM21.6,21.37a.174.174,0,0,0-.136.06.276.276,0,0,0-.092.207.17.17,0,0,0,.061.126L23.765,24.1l-.094.132a2.616,2.616,0,1,0,4.742,1.508,2.522,2.522,0,0,0-.768-1.8,2.609,2.609,0,0,0-1.857-.763,2.467,2.467,0,0,0-1.518.493l-.132.1-2.36-2.322A.259.259,0,0,0,21.6,21.37ZM6.914,28.755a2.984,2.984,0,0,1-2.128-.874A2.9,2.9,0,0,1,3.9,25.808a3,3,0,0,1,3.012-3.021,2.88,2.88,0,0,1,1.613.473l2.088-2.088A.535.535,0,0,1,11.039,21a.642.642,0,0,1,.454.177.559.559,0,0,1,.194.418.676.676,0,0,1-.144.444L9.437,24.142a2.989,2.989,0,0,1-2.523,4.613Zm0-5.582a2.615,2.615,0,0,0-2.626,2.632,2.511,2.511,0,0,0,.769,1.8A2.615,2.615,0,0,0,9.03,24.229L8.936,24.1l2.318-2.319a.293.293,0,0,0,.046-.172.191.191,0,0,0-.065-.145.277.277,0,0,0-.2-.091.173.173,0,0,0-.138.06L8.564,23.77l-.135-.1A2.459,2.459,0,0,0,6.914,23.173ZM25.789,27.9a2.116,2.116,0,0,1-1.487-.625,2.081,2.081,0,1,1,1.487.625Zm0-3.875A1.744,1.744,0,1,0,27,24.538,1.758,1.758,0,0,0,25.789,24.026ZM6.914,27.9A2.131,2.131,0,1,1,8.4,24.265a2.16,2.16,0,0,1,0,3.011A2.122,2.122,0,0,1,6.914,27.9Zm0-3.875A1.745,1.745,0,1,0,8.128,27a1.744,1.744,0,0,0-1.214-2.976Zm9.418-2.7a4.992,4.992,0,1,1,4.992-4.991A5,5,0,0,1,16.332,21.325Zm0-9.6a4.606,4.606,0,1,0,4.606,4.606A4.611,4.611,0,0,0,16.332,11.727Zm0,8.745a4.14,4.14,0,1,1,4.139-4.139A4.143,4.143,0,0,1,16.332,20.472Zm0-7.892a3.753,3.753,0,1,0,3.752,3.753A3.756,3.756,0,0,0,16.332,12.58ZM3,19.335a3.005,3.005,0,0,1-3-3A2.891,2.891,0,0,1,2.84,13.4q.067,0,.135,0A2.961,2.961,0,0,1,5.9,15.748H8.868a.62.62,0,1,1,0,1.239H5.935A3.019,3.019,0,0,1,3,19.335Zm-.158-5.549A2.507,2.507,0,0,0,.386,16.333a2.617,2.617,0,0,0,5.2.43L5.61,16.6H8.868a.234.234,0,1,0,0-.467H5.574l-.025-.163a2.56,2.56,0,0,0-2.582-2.182H2.946Zm26.976,5.481-.131,0a2.96,2.96,0,0,1-2.924-2.347H23.8a.62.62,0,1,1,0-1.239h2.933a3,3,0,0,1,5.935.656,2.961,2.961,0,0,1-.828,2.062A2.778,2.778,0,0,1,29.821,19.266Zm-6.023-3.2a.234.234,0,0,0,0,.467h3.294l.025.163A2.559,2.559,0,0,0,29.7,18.877c.042,0,.08,0,.122,0a2.394,2.394,0,0,0,1.739-.752,2.58,2.58,0,0,0,.72-1.795,2.617,2.617,0,0,0-5.2-.432l-.026.162Zm5.865,2.381a2.112,2.112,0,1,1,2.113-2.111A2.114,2.114,0,0,1,29.663,18.445Zm0-3.839a1.708,1.708,0,0,0-1.725,1.727,1.748,1.748,0,0,0,1.725,1.725,1.726,1.726,0,0,0,0-3.452ZM3,18.445a2.112,2.112,0,1,1,2.112-2.111A2.133,2.133,0,0,1,3,18.445Zm-.036-3.839A1.708,1.708,0,0,0,1.24,16.333,1.746,1.746,0,0,0,3,18.059a1.728,1.728,0,0,0,1.726-1.725A1.747,1.747,0,0,0,2.966,14.606ZM21.63,11.691a.718.718,0,0,1-.457-.2.536.536,0,0,1-.188-.391.641.641,0,0,1,.189-.487l2.091-2.092a3,3,0,0,1,4.651-3.739A2.892,2.892,0,0,1,28.8,6.856a3,3,0,0,1-3.01,3.022A2.883,2.883,0,0,1,24.173,9.4l-2.086,2.088A.64.64,0,0,1,21.63,11.691ZM25.789,4.3a2.6,2.6,0,0,0-2.118,4.138l.094.132-2.319,2.319a.257.257,0,0,0-.076.192.168.168,0,0,0,.061.125.36.36,0,0,0,.2.1.246.246,0,0,0,.185-.086L24.137,8.9l.133.1a2.467,2.467,0,0,0,1.518.493A2.617,2.617,0,0,0,28.413,6.86a2.517,2.517,0,0,0-.768-1.8A2.606,2.606,0,0,0,25.789,4.3ZM11.036,11.691a.713.713,0,0,1-.456-.2L8.492,9.4a2.884,2.884,0,0,1-1.615.473A2.982,2.982,0,0,1,4.75,9a2.889,2.889,0,0,1-.884-2.072A3,3,0,1,1,9.4,8.523l2.092,2.092a.535.535,0,0,1,.188.392.66.66,0,0,1-.645.684ZM8.528,8.9h0l2.323,2.323a.36.36,0,0,0,.184.085.242.242,0,0,0,.185-.085.257.257,0,0,0,.076-.192.172.172,0,0,0-.06-.126L8.9,8.568l.094-.132A2.616,2.616,0,1,0,4.253,6.929a2.517,2.517,0,0,0,.768,1.8,2.609,2.609,0,0,0,1.857.764A2.467,2.467,0,0,0,8.4,9l.132-.1Zm7.8.627a.748.748,0,0,1-.683-.6l-.008-.053V5.935A3,3,0,1,1,19.3,3a2.966,2.966,0,0,1-2.345,2.933V8.9A.607.607,0,0,1,16.332,9.523ZM16.3.386a2.617,2.617,0,0,0-.432,5.2l.163.025V8.839c.047.144.152.3.3.3a.219.219,0,0,0,.234-.234V5.609l.163-.025A2.558,2.558,0,0,0,18.913,3,2.619,2.619,0,0,0,16.3.386Zm9.455,8.639A2.119,2.119,0,0,1,24.266,8.4a2.158,2.158,0,0,1,0-3.01,2.116,2.116,0,1,1,1.487,3.636Zm0-3.875a1.745,1.745,0,1,0,1.215.513A1.758,1.758,0,0,0,25.753,5.15ZM6.877,9.025A2.131,2.131,0,1,1,8.367,8.4,2.124,2.124,0,0,1,6.877,9.025Zm0-3.875a1.745,1.745,0,1,0,1.214.513A1.756,1.756,0,0,0,6.877,5.15Zm9.393-.069a2.085,2.085,0,0,1-2.049-2.114,2.112,2.112,0,1,1,2.111,2.112Zm.062-3.841a1.749,1.749,0,0,0-1.724,1.727A1.7,1.7,0,0,0,16.27,4.694l.055,0a1.711,1.711,0,0,0,1.733-1.726A1.708,1.708,0,0,0,16.332,1.239Z" transform="translate(0 0.563)" fill="#fefefe"/>
        </g>
      </g>
    </g>
  </g>
</svg>
