<?xml version="1.0" encoding="UTF-8"?>
<svg width="20px" height="15px" viewBox="0 0 20 15" version="1.1" xmlns="http://www.w3.org/2000/svg" xmlns:xlink="http://www.w3.org/1999/xlink">
    <!-- Generator: Sketch 52.2 (67145) - http://www.bohemiancoding.com/sketch -->
    <title>Mail</title>
    <desc>Created with Sketch.</desc>
    <g id="Symbols" stroke="none" stroke-width="1" fill="none" fill-rule="evenodd">
        <g id="footer" transform="translate(-109.000000, -269.000000)">
            <g id="Mail">
                <g transform="translate(109.000000, 269.000000)">
                    <path d="M18.2700389,13.7689611 L0.835372222,13.7689611 C0.495094444,13.7689611 0.219372222,13.4932389 0.219372222,13.1529611 L0.219372222,0.968294444 C0.219372222,0.628016667 0.495094444,0.352294444 0.835372222,0.352294444 L18.2700389,0.352294444 C18.6103167,0.352294444 18.8860389,0.628016667 18.8860389,0.968294444 L18.8860389,13.1529611 C18.8860389,13.4932389 18.6103167,13.7689611 18.2700389,13.7689611 Z" id="Stroke-177" fill="#F00000"></path>
                    <path d="M18.4083721,0.255308086 L19.1226723,0.955147469 L12.5477846,7.66576984 C10.8941071,9.29212116 8.21138182,9.29212116 6.55114988,7.65920302 L-0.0171834553,0.955147469 L0.697116789,0.255308086 L7.25889574,6.95279683 C8.52344041,8.1964455 10.5820485,8.1964455 11.8400388,6.95936364 L18.4083721,0.255308086 Z" id="Stroke-178" fill="#FFFFFF" fill-rule="nonzero"></path>
                    <polygon id="Stroke-179" fill="#FFFFFF" fill-rule="nonzero" points="12.7630436 6.61073564 13.5676119 6.01687548 18.9996119 13.3762088 18.1950436 13.970069"></polygon>
                    <polygon id="Stroke-180" fill="#FFFFFF" fill-rule="nonzero" points="5.64390424 6.08170109 6.43537353 6.69291002 0.7350402 14.07441 -0.0564290889 13.4632011"></polygon>
                </g>
            </g>
        </g>
    </g>
</svg>