<?xml version="1.0" encoding="UTF-8"?>
<svg width="53px" height="42px" viewBox="0 0 53 42" version="1.1" xmlns="http://www.w3.org/2000/svg" xmlns:xlink="http://www.w3.org/1999/xlink">
    <!-- Generator: Sketch 52.2 (67145) - http://www.bohemiancoding.com/sketch -->
    <title>“</title>
    <desc>Created with Sketch.</desc>
    <g id="Page-1" stroke="none" stroke-width="1" fill="none" fill-rule="evenodd" opacity="0.100000001">
        <g id="home" transform="translate(-102.000000, -3117.000000)" fill="#FFFFFF">
            <g id="vision" transform="translate(0.000000, 3035.000000)">
                <path d="M154.2,114 C154.2,117.066682 153.20001,119.499991 151.2,121.3 C149.19999,123.100009 146.666682,124 143.6,124 C139.999982,124 137.033345,122.800012 134.7,120.4 C132.366655,117.999988 131.2,114.46669 131.2,109.8 C131.2,105.399978 131.833327,101.633349 133.1,98.5 C134.366673,95.366651 135.899991,92.700011 137.7,90.5 C139.500009,88.299989 141.366657,86.53334 143.3,85.2 C145.233343,83.86666 146.933326,82.933336 148.4,82.4 L153.4,89.4 C150.466652,90.866674 148.100009,92.833321 146.3,95.3 C144.499991,97.766679 143.6,100.866648 143.6,104.6 C144.133336,104.466666 144.866662,104.4 145.8,104.4 C148.46668,104.4 150.533326,105.333324 152,107.2 C153.466674,109.066676 154.2,111.33332 154.2,114 Z M125,114 C125,117.066682 124.00001,119.499991 122,121.3 C119.99999,123.100009 117.466682,124 114.4,124 C110.799982,124 107.833345,122.800012 105.5,120.4 C103.166655,117.999988 102,114.46669 102,109.8 C102,105.399978 102.633327,101.633349 103.9,98.5 C105.166673,95.366651 106.699991,92.700011 108.5,90.5 C110.300009,88.299989 112.166657,86.53334 114.1,85.2 C116.033343,83.86666 117.733326,82.933336 119.2,82.4 L124.2,89.4 C121.266652,90.866674 118.900009,92.833321 117.1,95.3 C115.299991,97.766679 114.4,100.866648 114.4,104.6 C114.933336,104.466666 115.666662,104.4 116.6,104.4 C119.26668,104.4 121.333326,105.333324 122.8,107.2 C124.266674,109.066676 125,111.33332 125,114 Z" id="“"></path>
            </g>
        </g>
    </g>
</svg>