<svg xmlns="http://www.w3.org/2000/svg" width="23.388" height="18.917" viewBox="0 0 23.388 18.917">
  <path id="Twitter" d="M22.655,2.163a.525.525,0,0,1,.637.783A10.031,10.031,0,0,1,21.1,5.235q0,.145,0,.329a13.146,13.146,0,0,1-.56,3.772,13.521,13.521,0,0,1-1.7,3.609A14.216,14.216,0,0,1,16.127,16a12.2,12.2,0,0,1-3.819,2.131,14.083,14.083,0,0,1-4.753.791,13.378,13.378,0,0,1-7.31-2.106.525.525,0,0,1,.34-.966,9.456,9.456,0,0,0,1.047.053A8.536,8.536,0,0,0,5.9,14.808a5.035,5.035,0,0,1-1.563-.789,4.937,4.937,0,0,1-1.8-2.486.526.526,0,0,1,.365-.671,5.272,5.272,0,0,1-.827-.793A4.84,4.84,0,0,1,.908,6.862V6.806a.525.525,0,0,1,.779-.46L1.78,6.4q-.118-.177-.224-.366A4.865,4.865,0,0,1,.937,3.624a4.892,4.892,0,0,1,.7-2.544.525.525,0,0,1,.857-.065A12.414,12.414,0,0,0,6.5,4.209a12.309,12.309,0,0,0,4.408,1.285q-.021-.232-.021-.46a4.836,4.836,0,0,1,1.5-3.564A4.97,4.97,0,0,1,15.987,0,4.952,4.952,0,0,1,19.5,1.377a8.528,8.528,0,0,0,2.47-.971.525.525,0,0,1,.765.617A4.993,4.993,0,0,1,22.046,2.4Q22.35,2.292,22.655,2.163Z" fill="#fff" opacity="0.4"/>
</svg>
